19 Práce s časovými daty – Úvod do analýzy dat v R
…
Alternativně můžeme datum zaokrouhlit na nejbližší jednotky, například na nejbližší rok:

round_date(current_date, "year")

[1] "2026-01-01"

Častou aktivitou při práci s časovými daty je výpočet časových intervalů. Vraťme se k našemu datasetu countries, který obsahuje informace a roku založení každého státu. Nás by ale spíše zajímalo, kolik času již od založení uběhlo, tedy jak starý každý stát je. Naštěstí pro nás, s časovými daty se dá pracovat stejně, jako s numerickými a stačí nám tedy odečíst současné datum (funkce today()) od proměnné foundation_date. Výsledkem je počet dní od založení. Protože ale počítat stáří národních států na dny není moc praktické, převedeme výsledek na roky pomocí funkce time_length():

countries %>%
    select(foundation_date) %>%
    mutate(country_age = today() - foundation_date,
           country_age_years = time_length(country_age, "years"))

# A tibble: 38 × 3
   foundation_date country_age country_age_years
   <date>          <drtn>                  <dbl>
 1 1831-07-21       70932 days             194. 
 2 1989-11-10       13111 days              35.9
 3 1993-01-01       11963 days              32.8
 4 2053-05-19      -10090 days             -27.6
 5 1949-05-23       27892 days              76.4
 6 1918-02-24       39303 days             108. 
 7 1937-12-29       32055 days              87.8
 8 1975-11-19       18216 days              49.9
 9 1978-12-06       17103 days              46.8
10 1958-10-05       24470 days              67.0
# ℹ 28 more rows
