Úvod do analýzy dat v R - 11 Práce s řádky
…
Zatímco mezi západními zeměmi vedou Švýcarsko, Španělsko a Francie, v postsovětské skupině je to Německo, Slovinsko a Česká republika. Třídit je možné i pomocí většího počtu proměnných, například pro třídění podle postsovětské historie a členství v Evropské unii bychom použili group_by(postsoviet, eu_member). Jak jistě tušíte, funkce group_by() má mnoho využití a budeme se s ní setkávat opakovaně i následujících kapitolách.

11.4 Pořadí řádků

Posledním typem operace, kterou si v této kapitole představíme, je řazení řádků pomocí funkce arrange(). Pořadí zemí v dataframu countries podle naděje na dožití získáme jednoduše:

countries %>% 
  arrange(life_exp) %>% 
  select(country, life_exp)

# A tibble: 38 × 2
   country         life_exp
   <chr>              <dbl>
 1 Bulgaria            74.8
 2 Latvia              75  
 3 Lithuania           75  
 4 Romania             75.2
 5 North Macedonia     75.9
 6 Hungary             76  
 7 Serbia              76.3
 8 Albania             76.4
 9 Turkey              76.4
10 Montenegro          76.8
# … with 28 more rows

Při bližším pohledu zjistíme, že země jsou seřazený vzestupně. Nejhůře se vede Bulhrasko a Litva s Lotyšskem. Co kdyby nás ale zajímaly země s nejvyšší nadějí na dožití? Pro sestupné řazení zkombinujeme funkci arrange() s funkcí des():

countries %>% 
  arrange(desc(life_exp)) %>% 
  select(country, life_exp)

# A tibble: 38 × 2
   country     life_exp
   <chr>          <dbl>
 1 Switzerland     83.3
 2 Spain           83.1
 3 France          82.9
 4 Italy           82.8
 5 Norway          82.5
 6 Luxembourg      82.4
 7 Sweden          82.4
 8 Iceland         82.4
 9 Austria         81.9
10 Netherlands     81.6
# … with 28 more rows
…
