Úvod do analýzy dat v R - 12 Široký a dlouhý formát
…
Zpravidla je široký formát intuitivnější pro lidi, zatímco ten dlouhý se lépe čte počítačům. V praxi proto budeme převádět data mezi formáty často a poslouží nám k tomu dvojice funkcí z balíčku tidyr: pivot_wider() a pivot_longer().

12.1 Z širokého do dlouhého formátu

Vraťme se k datasetu countries. V rámci analýzy nás může zajímat, jaká je nejvyšší pozorovaná hodnota každé z numerických proměnné. Jako bonus bychom také rádi věděli, které zemi tato hodnota patří.

Možností, jak se dostat ke kýženému výsledku, je více. Jedna z těch elegantnějších zahrnuje převedení dataframu do dlouhého formátu. Začneme tím, že z dataframu vybereme proměnnou country a všechny numerické proměnné, k čemuž poslouží funkce select(). Poté bude následovat funkce pivot_longer(). Tato funkce má jeden povinný argument, a to cols, pomocí kterého specifikujeme, které proměnné chceme převést do širokého formátu. Není nutné vybrat všechny existující proměnné, naopak pro naše potřeby je lepší nechat proměnnou countries v původní podobě. Kromě cols, jsou dalšími dvěma užitečnými argumenty names_to a values_to, pomocí kterých lze specifikovat názvy nově vytvořených sloupců. První z argumentů určí název sloupce obsahují názvy původních proměnných, druhý poté název sloupce, ve kterém budou uchovány naměřené hodnoty.

countries %>% 
  select(country, where(is.numeric)) %>% 
  pivot_longer(cols = -country,
               names_to = "variable",
               values_to = "max_value")

# A tibble: 342 × 3
   country  variable        max_value
   <chr>    <chr>               <dbl>
 1 Belgium  gdp            450506.   
 2 Belgium  population   11398589    
 3 Belgium  area            30528    
 4 Belgium  life_exp           81.2  
 5 Belgium  uni_prc             0.36 
 6 Belgium  poverty_risk        0.203
 7 Belgium  material_dep        0.113
 8 Belgium  hdi                 0.92 
 9 Belgium  dem_index           7.78 
10 Bulgaria gdp             55182.   
# … with 332 more rows
…
